<?xml version="1.0" standalone="no"?>
<!DOCTYPE svg PUBLIC "-//W3C//DTD SVG 20010904//EN"
 "http://www.w3.org/TR/2001/REC-SVG-20010904/DTD/svg10.dtd">
<svg version="1.0" xmlns="http://www.w3.org/2000/svg"
 width="700.000000pt" height="700.000000pt" viewBox="0 0 700.000000 700.000000"
 preserveAspectRatio="xMidYMid meet">
<metadata>
Created by potrace 1.14, written by Peter Selinger 2001-2017
</metadata>
<g transform="translate(0.000000,700.000000) scale(0.100000,-0.100000)"
fill="#000000" stroke="none">
<path d="M1755 6491 l-550 -318 0 -644 0 -643 558 -322 558 -322 554 320 555
320 0 647 0 648 -549 316 c-302 175 -555 317 -563 317 -7 -1 -260 -144 -563
-319z m265 -591 l0 -270 300 0 300 0 0 270 0 270 95 0 95 0 0 -640 0 -640 -95
0 -95 0 0 277 0 276 -197 -6 c-108 -4 -243 -7 -300 -7 l-103 0 0 -270 0 -270
-95 0 -95 0 0 640 0 640 95 0 95 0 0 -270z"/>
<path d="M4123 6493 l-552 -318 0 -645 -1 -645 548 -315 c301 -173 554 -315
563 -315 9 0 262 142 562 315 l547 315 0 645 -1 645 -546 315 c-301 173 -552
316 -558 318 -5 1 -258 -141 -562 -315z"/>
<path d="M577 4448 l-557 -322 0 -636 c0 -594 1 -638 18 -652 9 -8 261 -155
560 -327 l542 -313 560 323 560 323 0 641 0 642 -549 316 c-302 174 -555 319
-562 322 -8 3 -265 -140 -572 -317z m1023 -373 l0 -95 -180 0 -180 0 -2 -587
-3 -588 -95 0 -95 0 0 585 0 585 -182 3 -183 2 0 95 0 95 460 0 460 0 0 -95z"/>
<path d="M2945 4450 l-550 -319 -3 -644 -2 -645 555 -320 556 -320 554 320
555 320 -2 645 -3 645 -545 315 c-300 173 -549 316 -555 318 -5 2 -257 -140
-560 -315z"/>
<path d="M5305 4450 l-550 -319 -3 -644 -2 -645 555 -320 556 -321 552 319
552 319 0 646 0 647 -545 315 c-300 173 -549 316 -555 318 -5 2 -257 -140
-560 -315z"/>
<path d="M1760 2406 l-555 -321 0 -644 0 -643 545 -315 c300 -173 552 -317
561 -320 10 -3 246 127 568 313 l551 318 -2 649 -3 648 -553 320 c-305 175
-554 319 -555 318 -1 -1 -252 -146 -557 -323z m250 -826 c6 -569 2 -540 85
-629 89 -95 226 -119 343 -60 65 32 99 66 135 133 22 40 22 49 27 551 l5 510
95 0 95 0 3 -450 c1 -258 -2 -486 -7 -533 -25 -201 -166 -368 -355 -418 -76
-20 -202 -18 -277 6 -153 47 -283 185 -325 344 -11 40 -14 161 -14 554 l0 503
93 -3 92 -3 5 -505z"/>
<path d="M4118 2402 l-548 -317 3 -645 2 -644 550 -318 c303 -175 552 -318
555 -318 3 0 253 143 555 318 l550 317 3 645 2 645 -550 318 c-302 174 -555
317 -562 316 -7 0 -259 -143 -560 -317z"/>
</g>
</svg>
